<?xml version="1.0" encoding="UTF-8" standalone="no"?>
<!DOCTYPE svg PUBLIC "-//W3C//DTD SVG 1.1//EN" "http://www.w3.org/Graphics/SVG/1.1/DTD/svg11.dtd">
<svg width="100%" height="100%" viewBox="0 0 47 47" version="1.1" xmlns="http://www.w3.org/2000/svg" xmlns:xlink="http://www.w3.org/1999/xlink" xml:space="preserve" xmlns:serif="http://www.serif.com/" style="fill-rule:evenodd;clip-rule:evenodd;stroke-linejoin:round;stroke-miterlimit:2;">
    <g transform="matrix(1,0,0,1,-150.489,-68.8207)">
        <g transform="matrix(1,0,0,1,189.96,84.4057)">
            <path d="M-1.565,-15.585L-30.417,-15.585C-35.417,-15.585 -39.471,-11.531 -39.471,-6.531L-39.471,22.321C-39.471,27.321 -35.417,31.374 -30.417,31.374L-1.565,31.374C3.435,31.374 7.488,27.321 7.488,22.321L7.488,-6.531C7.488,-11.531 3.435,-15.585 -1.565,-15.585" style="fill:white;fill-rule:nonzero;"/>
        </g>
        <g transform="matrix(1,0,0,1,174.129,91.7497)">
            <path d="M0,0.55C-3.53,0.55 -6.402,-2.322 -6.402,-5.852C-6.402,-9.383 -3.53,-12.255 0,-12.255C3.531,-12.255 6.403,-9.383 6.403,-5.852C6.403,-2.322 3.531,0.55 0,0.55M10.731,4.995C9.079,3.342 7.111,2.119 4.964,1.378C7.594,-0.433 9.191,-3.639 8.678,-7.162C8.114,-11.04 4.93,-14.117 1.037,-14.566C-4.263,-15.177 -8.773,-11.032 -8.773,-5.852C-8.773,-2.856 -7.263,-0.206 -4.964,1.378C-7.111,2.119 -9.078,3.342 -10.731,4.995C-13.295,7.559 -14.829,10.879 -15.124,14.452C-15.181,15.139 -14.626,15.727 -13.937,15.727C-13.321,15.727 -12.811,15.255 -12.759,14.641C-12.207,8.087 -6.695,2.922 0,2.922C6.695,2.922 12.207,8.087 12.76,14.641C12.812,15.255 13.321,15.727 13.937,15.727C14.626,15.727 15.181,15.139 15.124,14.452C14.829,10.879 13.295,7.559 10.731,4.995" style="fill:rgb(55,60,130);fill-rule:nonzero;"/>
        </g>
    </g>
</svg>
